{
    "scripts": [
        "create path (sling:OrderedFolder) /content/dam/hdfc",
        "create path (nt:unstructured) /content/dam/hdfc/jcr:content",
        "set properties on /content/dam/hdfc/jcr:content\n  set cq:conf{String} to /conf/hdfc\n  set jcr:title{String} to \"HDFC\"\nend"
    ]
}
